0 1 2 3 4 5 6 7 8 9
1 0 2 3 4 5 6 7 8 9
2 2 0 3 4 5 6 7 8 9
3 3 3 0 4 5 6 7 8 9
4 4 4 4 0 5 6 7 8 9
5 5 5 5 5 0 6 7 8 9
6 6 6 6 6 6 0 7 8 9
7 7 7 7 7 7 7 0 8 9
8 8 8 8 8 8 8 8 0 9
9 9 9 9 9 9 9 9 9 0
