676.4156210626256 505.3750520808119 578.9133414102786
542.5201073437664 1003.562427665446 186.9288732442554
276.6442531900796 571.4320946364421 336.6451262236257
608.1301238979114 984.1592855766322 270.8070784231811
14.39205845416898 263.8288028009941 374.6053354114426
328.2785082712542 2.567373320819956 269.0317370275749
526.4107219909745 68.66586972115049 945.6594404763571
126.3725460361699 718.6616568468484 470.6695627839331
997.1928329014133 698.1825832392044 291.6601559447572
542.257260121038 329.2143138759839 967.2037200947964
809.2419908346204 984.0314840882903 642.2241594359665
315.5575412211655 862.4518190815631 76.95002685589536
415.3714013303789 147.5236318503301 625.2874532638757
1009.08073363928 571.4488029144024 623.3054761921236
392.12231817448 405.9662413863541 694.4149227972375
30.37602763018406 558.0525799065414 552.9846812528401
15.0171115806724 496.3808310446922 713.1666768862079
335.8961435340396 232.1570135281606 520.2636856552245
878.7931406962618 726.5880530620003 855.1599283437886
2.722706493022588 889.7283838247006 260.9552216952046
313.0246789988979 142.7110741945383 10.755234147272
819.3272456272579 243.3716475516827 130.1409452292402
553.3053183748889 657.8682406792144 479.3093283051343
887.1920748380278 366.3433502487891 673.5245234640884
1006.949779413648 438.0244419219994 557.2518187222003
186.5808926807052 933.0313520041373 554.6065403785439
802.6531250678999 525.4144225948601 186.9650605809629
758.5344856677597 626.1271609651631 448.6314261956431
84.33393918846654 805.7872528676949 289.8176087868576
162.7056524597016 108.903498049029 124.0095122100117
982.8900908677103 481.8961971027465 702.5546920367765
201.7362965942255 73.2818563073577 253.8688848808441
425.4372129230111 273.7583113261413 258.611096537703
386.2869664576882 52.72967385613531 187.9536887630103
869.4991070926206 561.8304339257264 876.9730086703515
579.1211154780369 672.4665850792919 899.617956824596
1023.434130095447 986.7330525440519 118.1606880627113
812.9502497149954 637.1154361976653 322.6739687847872
195.9637880938139 360.7254846619908 893.8807253612526
930.9405638757164 840.3145571820006 508.5949366774004
510.8097064065458 61.83564137777425 405.9536204650339
566.4856516468606 409.4008314251911 176.2820625697551
321.7796797676278 152.575450553498 508.5212248653824
171.3533007333788 884.851357863629 799.1885594503608
260.8907144902221 284.3883700425986 489.0925516019846
302.4919117715187 939.7966152237167 891.1243149433977
904.9530452501599 384.5811648352076 235.4118572481977
713.2773721741627 667.0483191997047 338.0015107413124
560.918364258526 870.9915076157304 578.0833151349385
391.1371541056357 831.5911674147022 148.7247171665501
736.8961913624711 327.7574346088125 438.3652689602548
604.1880926365243 223.3140490196781 124.7550800871755
174.2361273417776 887.3231663845395 94.61320528244634
678.0135349393787 426.81475119893 216.9576471894158
558.0827646578416 749.1186384100872 571.1666283267205
494.3134252159961 1001.310985765534 940.450280586701
590.9508925140501 871.2395936393568 753.0039390147733
32.97868130119939 265.3098038100579 940.7855494809088
61.91901283775717 597.5069828079065 988.8163526129296
417.7178635274136 874.4898091024842 23.57764344425214
979.4677688951529 975.3727449501592 284.5961373554986
141.8776846164995 866.454225880084 38.78737059807797
111.0194938445639 195.2025644491 120.5291902394624
574.6211471733717 771.4612307423746 826.7745313017828
922.1999488525755 834.7956513131427 925.3328033003062
868.786207381951 723.6308644313193 532.4828375234756
502.4683718956155 21.70394206391125 387.1305070178543
316.466256117359 255.3321223056597 212.0100286261956
792.4456676787159 781.6544874661669 796.7613697734752
171.7818633764502 224.0814430322353 710.4715978105672
963.8909523889853 62.65903173690769 917.6288207845477
941.9146611263736 843.5027011072827 186.6323785372983
345.9993420800942 788.8209331102521 736.2595082456176
776.7118958311881 695.8256147029556 732.3207734617095
948.1066304612461 71.95710330145782 327.0036732408493
523.4896400992021 308.6103720994601 401.5684182914218
963.0221833269775 290.7068587545018 936.3922345147147
694.3957171440625 78.96775389750546 289.0000311789573
377.9794064479306 300.0123378079847 119.1197769690045
177.8506761111216 994.8076103670018 326.5896430275098
898.7643352063457 556.7119409134226 646.9838820312351
148.6932025986732 135.4463400556131 592.3173246522665
930.4886821046636 94.17513145687592 66.00453610068841
485.2499118228787 36.24116287038866 807.0307298534116
654.067761923783 97.08687337334906 689.0219570613286
177.5701447725575 443.15427451765 466.5863842730537
997.0788523146356 240.7891721589459 647.2947854432041
983.4237244185473 911.412824728819 27.20002610661554
6.587281822065438 181.5164126573504 1000.865584934637
86.34800389258969 800.9230623523433 450.1856288479274
285.9110987323131 889.086200836065 162.0303057223495
641.0816689984795 950.4946242945088 734.3586119053305
971.4183750347934 9.913222041166183 940.8559056583592
71.74761747492168 807.1457011057632 487.5069407826806
151.4331464503089 254.0557058624054 523.4886154679157
556.7587982102953 933.6680546397138 285.0401988079036
639.8833299031396 62.37524954552809 558.9813635734216
17.70889209221382 217.6331537013642 159.7703201903092
116.0104093605224 963.798650980909 89.91913287836898
836.1587441608613 84.63702445398796 125.8349883707861
8.335801485116054 349.760562935903 147.7496453401072
838.1874938197649 52.88673553841311 490.9412272745544
858.2999610519618 787.5401848101362 330.5030410626059
300.3514712031987 320.4770436722341 579.7097099885668
428.0235350187298 732.9813024857165 299.9219343178204
919.1208598123168 539.76621641462 260.0029296026037
975.5393201865992 976.9516509270136 312.8436839658813
510.8622843348941 112.0942100970974 745.9451448115361
15.19159580206854 583.3708336407709 238.7483979905831
239.0393671874271 218.7958522610916 86.47249061900099
345.6002307283042 440.7179523385963 756.3827234583885
168.1099620244083 135.4315405934498 718.3736035975311
767.623881556823 59.35030682579979 600.414726650022
772.3726600263251 627.4012284545908 422.1351733811946
457.3883563131681 1019.497124846965 734.3597249037435
576.3024122463953 640.2739920914515 575.6659648827939
536.0023414323638 933.2058360773661 939.3020900150765
139.527056168857 55.68613840158416 533.2261241874379
117.1684242940362 856.3445410588481 447.8526516038098
806.4697862891239 53.47652677376531 600.4443687831057
499.0649269150204 861.5513681103054 254.7401599772285
656.3499892745183 952.6607696322629 723.7361617164385
989.3164843894772 128.2637674887116 993.7354869729379
784.490878109645 297.7302650749488 767.8134058112815
567.0006014888684 710.2047056759212 796.2481913077936
363.7830965082742 228.1424712644471 594.2850617043148
897.0509730334225 662.0023439348823 775.1852513542838
388.9463839439025 54.99136552562418 762.5516424428135
989.086148784344 110.2475854261484 325.7461204717658
114.5471292822242 116.1142858398119 199.7539116388628
34.93833735352068 462.2477816734186 57.06957633646157
72.43515941286118 465.5695291934008 497.0353333842697
127.9440616885792 674.078758406203 668.2397886328428
777.1047607092643 765.1417847798125 41.03126692671007
629.8008083631184 811.3295722985898 655.1280210626765
79.26622448686923 861.7910823383625 540.9449750898498
345.246043830852 289.4499199648012 879.3626761809437
294.2141346084241 775.8986311308166 945.5894199923877
1016.485183134241 42.18762067144137 273.6531043199506
888.6219373755599 6.824194374091166 656.9394866946881
6.729479421621863 761.0636985580782 569.1826394107948
179.8597539994797 522.0179251690586 828.452474532203
882.7781325620992 357.5298280050235 870.8279943672703
566.8794902378886 877.5676417361781 392.505543103231
382.370634773482 1018.415118659444 930.2140410359526
935.2272419293998 564.7365338324653 438.6491270856466
494.5065470772115 530.7663074844418 573.6924783688469
669.9042878117932 20.9517339762604 324.8259182437703
912.4182385508376 948.1269128437538 108.9127504661483
740.7319524652338 291.0415739630916 955.9822671623479
214.2428197049755 58.62709020956713 379.7192577328114
342.5185310114018 878.9839045552607 359.2909052857294
388.4539196138884 416.9123822409578 436.4255039062934
823.355099507186 223.6822130451429 109.9789076818644
815.3685484524844 25.44353912848969 250.8824915814309
805.4406974787996 601.6446699102542 878.8113326583294
667.75591222832 147.2465527356068 494.3120313246487
547.9020680107957 1022.172375220447 127.8615182303911
789.2544262865832 913.5896365389731 270.5171465250672
8.108297965706971 537.509649429943 328.5217154520575
299.1861420364802 955.842570578722 52.92384281886341
149.8782692865281 152.5516060812524 749.6316155791748
268.0170467590572 91.96765439356311 101.7862372557268
1014.274705480848 22.31900678156017 476.2178887602323
389.1554820868552 797.1126227711725 660.9917858110714
699.1724637810513 650.2605003948601 722.0040106936316
502.4225760909604 130.9909418435845 214.0253814171388
505.2162319621771 354.3971610780096 697.4685644195731
993.0280606117202 61.55262285410269 372.9700864804328
1016.044351030663 335.7521981093702 527.6329296155716
840.9570496009749 25.76694762219147 840.7512446930547
160.8245918591944 359.3566277190723 398.3101598365342
817.5087923488113 624.6754077791236 812.4155589420382
301.791165662871 1008.332664984185 573.3568083843466
995.4727359050315 830.2356384749031 282.414080546723
808.3983919315175 891.950573381517 250.1912537922706
914.7050817679993 709.8620551743281 612.0070344059864
159.0688071524797 435.4223732794695 74.77704368198128
492.1255000540754 844.0922617484765 130.7241350228206
787.3592041669633 228.3771613191057 496.8986483401025
491.5922945188601 680.8270971618165 375.7689024008146
960.4547687852943 448.990654865264 21.74171775560426
644.8313012927465 208.1297347984661 898.488751809215
70.60281900582383 284.6260817717064 748.7710414911722
678.8853248679309 667.9783507026515 1023.778399251165
62.89858778066734 307.059348689223 633.5562609518915
28.11873525275319 531.335059850609 217.659757707325
110.5325006127098 405.0741861997873 879.9815744212128
473.6869721450058 410.8665405043219 821.6481676341467
220.2448032983452 1004.806422912547 663.0412344833957
196.1681125026535 510.7893853545538 344.4508368592701
964.4541941544554 866.7951763701034 539.9042428899878
123.5304637590173 307.7127934307647 121.2861089429661
464.1678845584143 604.3324387963632 316.3627487584775
819.5281168337074 412.3596814864089 302.6106085180483
894.871890107954 167.7594115093587 425.5244821137015
828.8023383089793 689.6197372994164 373.5448550251764
182.4781568814939 214.2310064044487 101.681360156598
562.7389913121367 774.1089762642168 435.7390417650321
43.68839184823405 602.5059380938749 255.7171590853149
799.3903699694612 936.399618180516 73.02047226360348
294.2394071284994 680.0173024842238 1017.218446650554
198.5221193061829 110.2996161945942 366.1552944724972
346.0620134330125 741.3650687483185 377.8139861068855
267.6803666438001 871.499099729926 849.6670656588554
943.4454058242019 17.86740745613047 522.8601171807834
595.7045674884737 284.7248926135815 813.1979121115818
752.1317500124792 859.4825335377277 872.4152094039403
978.1495000802729 798.090305151286 329.1571020682092
665.2819340346923 1017.561690661827 693.2137320330826
14.53178868435014 967.9830349646778 136.4942219170526
224.2623607365055 604.4943757490098 969.4930856445972
589.3264008903192 962.9115424013063 613.660198559523
728.1304937448368 132.3558651454155 602.4433175580016
912.692012537643 339.1727970214491 296.8074851883353
544.3763555904665 735.6155915827321 221.6017806828062
894.773530554755 693.4112177253959 756.1663508225453
64.94193709534208 932.5727804183755 1000.910496014915
191.7621283622397 1009.436815202132 107.8303503216247
312.3620982133077 772.0199427946968 882.2110056786992
715.7530869902006 381.401572449262 38.28961669411369
214.177504108862 259.9759235382723 26.98580855905873
672.2788413451192 858.4988848463749 888.1064422082809
14.2039254454359 73.31220663980928 113.7923358875338
154.088063672942 129.0845863233537 158.6821219666269
399.2874848377733 827.7790645541818 1005.595769664456
616.6613432573496 476.8098579400124 275.7503877395038
286.763150648012 890.1857319147707 34.95934501244533
17.17506766451168 540.0214953710719 924.1929225991145
701.7962487572335 525.2205938059429 64.31465237200921
544.1435719190266 754.434419413676 233.3331718341065
584.2162084757921 63.12794666852317 403.6521434344618
240.5656234487614 370.7506178799225 388.7737536805624
767.6754686825078 659.9693604850988 487.2147513876347
99.15392011351427 180.5444656523475 971.1324912677049
753.0328134645316 186.9553116554893 543.8670231808153
271.9357797218954 790.398394796531 770.169304476841
198.497914683767 690.7377521099286 528.603901794089
746.590457452297 298.5887663460649 683.1370979310494
824.1848901389609 528.2203609110258 750.5957616483242
894.6106782462491 214.9173629376706 946.7173286679017
991.1251052155849 182.9265813539463 999.6443326780089
532.0890618792922 705.5751478033978 710.3277160759575
37.90237147419332 5.749850052501233 390.2639196738941
714.7845577716836 604.7514491921114 668.9006945049988
902.1080818495132 599.5959107010164 637.6635791269409
728.1669506713677 877.6483916229912 71.26483902943009
49.58056737664633 141.8774063882241 602.9317539876376
16.90306583688373 803.7899253901004 246.5411550567945
430.1961759638845 969.394355591529 692.6820654646231
948.9720469261466 342.7743181856208 964.4610997847318
901.4518097299934 211.1284739659628 0.6488058935486152
889.170719545668 193.3244497763513 607.0865805238378
215.5296530573901 283.8458034147292 64.82362392641964
53.33353568725322 656.6783286036004 596.8415059197629
299.1820414619107 171.3558002159547 273.7891741540499
977.7503780494446 199.3716092242441 640.1500055734646
464.4166947932341 963.6211988573771 82.43877288155367
150.7174066572109 538.5973549503528 952.8017251089734
736.9477416825571 101.3404749478816 280.9266438723935
252.6254213232423 706.5757538143146 937.8043737144146
522.7461267996831 836.9610405595367 141.8540341833656
850.1538671179052 236.6605181574262 344.5070143117036
413.7104348903011 788.884868221593 27.48855180390858
847.8827807987606 34.51378768921192 166.3109120233293
6.22160530479498 926.426207944775 481.100992794056
236.7948253860177 533.0881352618808 1010.201217193241
110.2801271989032 121.0897516074436 431.3116294017773
247.2508259591277 611.1989682664109 629.0091370424906
907.4088659426751 509.4041943481358 669.9880318633675
102.5262358087921 311.7449689578349 479.7694341827174
948.2976954319074 777.0065921673483 975.4951354221092
945.5481328712253 434.2934382478508 130.2580599466081
679.5704193861787 20.93905976354715 226.7186200431452
919.3105994668931 181.5238110608423 604.2375628110491
743.3867949096096 546.8440581721528 469.7859707090797
203.5078532036294 288.6457147922366 220.7766733487214
682.0470905031804 991.7370663334486 112.2391855271864
971.5744233594789 116.5674811602521 203.1610370217712
980.4547239113482 878.7092196855442 292.1612687917355
108.2940920885534 281.9587494935611 229.6558665479571
820.700664239794 27.03112065353917 690.9308239451746
836.8410388662727 495.7590664986347 337.4437873199813
362.4314812227984 465.3673678483535 936.1729399253853
486.0375759505279 890.4016306257693 816.0341050822917
859.8142417704864 752.7219518019181 298.5629360274616
607.7693116702568 184.8442506072767 808.4651998406628
143.3614874433036 809.06875561688 984.4603518332779
392.2642727472556 462.5084845717922 324.6370417560528
160.9755744144559 913.8274459936864 94.41588607247711
906.6465927622237 365.0846769041214 384.2072239206883
26.67729585065176 799.8893523048065 990.3089603885077
308.8564249133553 946.6857541940875 521.7456186618056
521.1164133782331 669.9291461710114 339.4593399090878
12.04203893832828 78.74130187387998 13.78041823739231
941.8265705717811 958.1112111599313 719.8015972285798
589.1383859324117 428.8929289581171 834.87348828823
513.8923157317628 675.8665352135222 780.676734775804
260.7285038263458 930.1925909632422 427.1289775270074
415.1352831355129 905.6101978253057 472.4482037893471
280.3524437971077 549.9719327590055 439.3020744534305
378.6248089529024 663.1640045582592 595.4250351181909
427.6995346215576 993.8257039980583 32.95259804634297
616.0049164906035 781.695692410514 233.5108078415755
92.73232674210173 29.64117580767213 487.2598661551671
160.3931742412283 1021.41421828501 246.2696267982589
313.8613935629521 453.653382279157 58.02438865389199
606.2764759007191 654.4447856793857 821.4125479252763
1003.188146593953 822.799861582604 88.1591233939876
1011.716479508996 469.7352297160182 494.1175739622992
446.9382498957365 690.5549321319143 904.9259814224482
150.2347570779478 248.3290709301789 728.1421798435881
947.6604193623017 7.468649930975789 276.9898858212557
286.5364958002063 924.0674469066155 225.0798913227761
580.1305324135092 862.7891857946405 937.3446897599225
659.8076172780319 675.6502896899816 1001.150421710153
273.3311717686429 821.5974242135454 615.4865031404936
315.8064817349406 220.4404118314636 244.3514414823359
1021.685481746945 977.8774563959366 242.0715369915112
624.1068745274492 496.8434737822486 60.76794099341787
114.2094385800922 404.5553409810718 67.27534144435269
493.0915326611195 972.224445479113 630.0682502537953
619.6518227020897 140.7810282343862 848.6137946794681
132.1404223105495 409.8264194029662 137.1408139486328
414.8251827226218 458.3592218663552 601.2412461813876
785.5121336752896 11.25385430767226 454.3588662297176
539.482632205017 648.2793765886439 142.946770209978
83.21743474541613 362.580760269324 85.41353200016799
1015.157783205931 67.72384963642564 284.8098827072965
126.9513143256698 148.2365648996544 591.3722124078851
66.04943542407379 113.970822058381 387.502728764692
668.0659971684682 830.7613224487056 179.501133805433
858.7903669909908 720.9442890750432 929.7952142760278
408.9817203539624 835.2946787196657 183.7870555367348
212.6116666370989 249.6774652522495 110.3867451191795
725.2828163532827 258.4253901210209 577.2136431523301
872.4495637483761 117.9184721282746 745.5634697772859
606.2028218762116 767.5441787872082 632.0424815298097
955.237502629108 141.5929505665558 675.0534786779496
755.4637566472923 546.6001885086348 883.3302626424285
670.5300639385607 573.4370498333581 636.8847829493571
312.5561913400414 981.018061897656 764.9581412607979
234.8278778401498 602.0470566575707 360.3489391082209
15.686013793507 978.7389989213658 888.2579467540899
307.9964981658364 426.522098208106 608.94752341995
985.7701546371204 52.43833022548556 213.3643870800557
856.3062329262066 603.6577033289685 1016.774839473353
646.3062568919927 483.1584776604844 81.93162674886655
992.701290298886 995.6099513010671 802.210348654551
853.0319163153288 544.2399907982559 361.326375108444
38.27440084794959 350.7815560813382 195.4451191814746
813.5580800458982 992.2368896423422 43.5558767207945
803.3412287504102 452.1065275350308 1.390021231706942
121.7156088785305 349.0649297945582 757.3750689444615
955.4567704713564 519.8822436191864 386.163410885972
891.8542059160235 442.5013628044907 249.2966718298903
578.5153370895453 374.492624781899 355.3751018226044
692.2625458570686 835.4827314946996 84.33583514648267
3.599414310086149 509.2798968118462 898.0380036787666
388.9047928939897 855.108798511672 671.6667529804615
837.881869620292 5.644088862336775 1006.495432214638
115.123686581382 369.2547958560631 408.5288157392438
229.7785750944913 95.79372917150663 324.0932357098695
666.9544215566327 831.696728813727 130.792777466881
124.0317142538071 949.6970674325854 858.0135268953599
113.5295420933607 589.953198138213 429.7292134212018
499.0491928399387 616.4296603663225 737.8714633732191
1016.59318869577 589.2516325756113 80.08648640461085
57.61566292763375 132.4385137144237 54.4659517422031
1000.372646973899 20.9034546073098 749.6486376292734
576.4245903290756 42.35734011334732 596.8620894509304
983.1178760695244 91.8816017375223 684.096612089608
281.6203962440858 804.859243558905 135.6852294710176
424.3709648218732 1010.493768813956 768.0384421541844
830.2666761291423 791.9604933723532 468.8868081724211
124.1441044357449 215.2933673781079 898.9730185568673
175.7531642365719 345.7923165509927 993.8260048109299
442.5598707551439 746.6099539947052 793.468152231096
394.9204878314484 141.6935278699004 942.9348854106262
529.5767947983996 603.3294954959717 698.9241776616815
486.3975330770693 504.8141269343824 29.91698326150065
92.38640361697598 777.5313043458979 275.1559752317913
35.38688399119069 441.739495218129 986.4583299450483
946.3298162542476 596.9301449591673 491.2514617649211
1022.201996712998 506.6374257171128 633.9130834386175
355.1605781398816 288.8805920149641 907.7694863139839
807.7836552231802 541.9561956413318 686.9395807586519
125.9457565242257 793.1824178304219 962.1822791824492
912.6592315976399 25.44154398193728 264.0404555033134
138.6549081498975 966.9803093416734 317.0033626697402
45.51826104310435 469.1263527260647 780.0535381437874
827.044809598662 502.9086970226328 663.4763543932451
596.6273596908303 5.497699373282035 425.7809132718721
824.7081746296628 799.2150217016211 591.4359614513871
52.50695517729484 181.5672547682479 460.5788606837305
457.3998796591659 799.2364250258265 760.1201050743947
872.6317669580791 917.4530676772931 153.3299130926371
97.16626046964477 293.7846479966672 78.16875534981607
627.4518846952413 640.7590399099837 88.5262670628429
968.9938401965104 448.4165813397926 876.1808854873772
729.53250197786 128.3128570873133 163.0995730752781
414.5909257032794 805.046337308471 951.3929750958954
220.1739279490711 353.2883281386442 676.318531411693
547.5018374461296 186.1027124025513 978.9619040820332
362.69219665271 657.0971450830234 620.4035491366677
710.4819049614574 1001.349894511101 176.9231850096796
523.1113808859196 610.3644827371977 958.8835624014405
360.1699554907092 558.6412531079035 796.402237594326
591.0350285498696 393.6761597118703 61.0668316874176
510.0169073445924 405.4714310413531 788.68378094022
730.1542909535467 43.69501688620146 975.3637691360873
402.3050655999193 48.1461218279798 301.1656956773695
127.4408784892822 601.3535513358437 44.06626935688534
951.2690185778063 768.2193002099176 260.9202222537584
858.7389341048226 130.8011765338622 122.5807847702197
826.8316800028966 898.1116673669976 156.2969439052679
670.8291040988188 330.8777911699244 509.9187077898602
860.5232042173795 408.2936710104856 588.1338532832667
68.66285457478891 938.7290793653231 308.3068798717597
462.0006964870885 436.9062887742564 299.6938585331731
87.0080137584868 395.7939181360649 151.3105662551566
528.3739325566796 663.2851986529628 803.6243941930031
530.6804902527786 111.6061899956729 191.2870333740872
961.1103570962919 65.44650292227554 767.9393364199823
514.7144725925046 67.77419430713501 184.0875982363379
170.8831169359498 865.4030048407749 554.5759250713996
873.2414016060181 296.8023597572708 499.4083002342899
205.6644789258702 28.76784670400666 265.3762480707402
379.5686525136497 63.95243819935892 957.4664349278704
239.0697570098062 546.1023636672664 463.0602513041434
454.7205756338628 85.17002871444895 233.967115461962
380.7040882835791 811.6359203867222 424.680018031902
174.4901542744407 381.4413422755088 91.99278651534682
684.6717376215839 962.5437458582111 234.5645087550961
781.5369985374962 940.9516693160125 800.3238012689275
852.2651398974009 936.5529384051847 125.9294669462618
849.3854541955499 324.4190029874134 240.0948141247035
660.4363783676054 849.3024253700188 656.6763882741602
428.9633620270715 274.9492332935217 778.7081584847515
481.2000975970987 86.142655711161 57.9772190427605
787.9448735743307 311.9050358595669 655.5733622082711
157.0691332864415 259.3138185620559 398.0990906982645
721.3766564373608 774.8977000240727 831.8305785144482
859.7104385013375 254.6347289381494 671.6675016282699
322.6835158158034 253.8796468818351 959.6109134997259
281.6498015822989 163.8559698172153 903.8416263301963
65.55929088952466 698.8166984083891 910.0145571840796
792.3507721726908 576.4208808390312 768.2436102488302
70.74007893950072 102.5261073066279 123.7557662950922
976.386949448661 395.3031867131909 131.6027904869624
558.9979947642536 1007.310924959832 51.1622716376002
225.0333111302209 567.561776310892 727.7422960308631
7.251492557419328 932.378167447577 306.2044164702034
214.5995439200578 252.8457263246887 502.6179022246894
612.2589248591925 904.2026810303947 439.8460230215579
822.2246805856297 289.4883577780265 747.4079441060643
501.3890932266586 972.4666133441258 729.1673805909572
853.7201183177173 549.5091046207975 809.5982331195452
141.0049502010702 696.057200309859 693.1479704083894
990.5084222613827 815.8928190374231 828.2389594371884
1017.410445166989 929.1338718687044 425.8994728854106
584.1916616499361 953.3608551196993 392.9054340818058
423.184795927525 587.5187769856116 475.8297150231367
739.5605043117795 232.2610869460166 783.5903736462354
122.5665536085309 845.6278166001348 692.3173709826104
701.8732482993543 370.9746278416638 694.9618424721258
446.6417516055273 777.9048468715065 1003.638656621207
569.7405229120403 521.5933513643166 13.01562822941576
80.25344164343157 962.2439259308165 451.4526554444173
1005.982766955775 922.227058699379 17.49226960033041
661.3564905706585 755.8862073986023 600.7135616785781
607.1680718796405 135.9524541648031 1.747838775658624
130.4298747900365 737.7375577620237 355.4430432535433
797.440687003355 881.3506961167569 192.7745585823508
1019.195959906139 781.8237036452692 172.9422836840527
949.8190201936166 15.16632093192668 270.9899763695129
623.0422254146968 222.7075707356232 775.8230460681085
19.11840512654333 379.8887031012416 1017.380391234411
157.0306949013274 601.5763281198567 848.6469827112969
480.0580675420774 373.6978520708405 749.745555945876
162.4661807357185 147.3035239744939 615.9829897443592
520.0483200328705 399.8508761136675 896.1762412532964
932.10183911506 692.3001689724314 167.3012118662029
344.9635832345883 933.4818393502751 735.9262355722873
100.3672378639313 985.9352635343951 965.2349139541037
204.905419441434 775.5861342083949 568.8346574360967
623.8586894340663 342.9967340133778 628.1966292561794
641.0770483346472 439.3913079347053 221.9531989733705
416.6731770665914 589.004926246945 484.44788991485
4.445261362500605 183.5578973971732 338.9881440532894
627.1724743619047 922.8512398515019 621.6041034755502
792.1151963696082 202.433443558208 722.2086638134809
999.8202863500414 366.7704683732528 419.1951731775393
830.6632757286923 168.7350280815694 773.2627230091803
950.2740670158306 268.9704030671888 708.6044346848067
509.9393040580674 385.4704380342516 816.8103058552916
7.853178837869495 414.1736591127881 383.5042846441594
374.7824218002988 360.5248419456917 283.6616553423818
622.818918063498 928.7682219724154 849.4752854643663
888.0349799126617 842.2401755836852 379.7080922266165
174.8877710503495 831.02958032853 568.0713602060182
898.007872299238 644.9091772458087 778.5140983063382
470.1070715136544 811.8707100330141 639.4644055706387
55.15123465123274 53.06627135997046 702.32417717487
170.8509461513029 420.8993950613053 676.2539909400243
425.4261497872264 117.9080053541791 892.0733998940166
682.9361449314426 223.9518715375265 126.7890359438477
416.2310847191681 59.72230378555132 918.338047520365
223.8358494040398 971.862442206569 716.3631307581758
496.3612684043126 560.1177842162776 532.1976091605878
601.4615385606444 267.8293918392287 161.8940713555674
858.1152801751546 893.6384267110673 115.1549350693221
412.5187262202298 366.1917483283052 920.1368927252043
376.0786129440758 825.5437209834852 538.3047425104685
876.9434327982025 975.321996573849 647.2591309938043
16.2640499909699 170.258807267891 574.9868158139205
524.2178169754193 119.1349423938042 92.85055870843421
107.053562995949 334.6294951449893 463.5937680028484
550.5118956614052 473.1834001651541 18.48161905473244
193.0585632462838 890.8625233887851 743.1320801326159
803.3960457321855 282.6107401746908 998.8687337456174
235.4550292423319 70.60275017328335 624.902937534515
149.8722659895744 392.1115412476715 793.5401829246865
69.64295852274635 986.9743175012153 574.032055378499
696.8095860970083 74.95242273573017 28.34034344244144
588.4354826572527 947.8174597388066 146.3244281448976
195.0756542632694 869.9068498813201 842.2071628997465
96.30438796053379 643.0409316579174 725.82974231529
590.5002328092407 773.9471784072776 517.820790365977
54.83259505007577 823.6728941578973 754.1556107166083
652.2823953620033 632.9483965152822 317.1508555826002
127.2278411790358 424.8935162300079 197.6504221672098
609.9989075835163 976.8815405712975 598.5087001136206
62.9146044725175 101.8034542234426 1017.078404202074
934.670242432593 809.2125154478631 542.5574794050173
1.698461833966053 961.6452654576874 1006.191296054917
494.2823740569958 331.5026001179462 446.504173976791
192.2032235639345 538.960723192649 140.6306853421185
473.8676303388689 178.471384407835 676.4172350477738
914.5301106859123 51.23366618205948 78.03489922122769
399.1147066037218 980.1486472487214 342.1032471829712
200.7529995793105 602.3801946469162 279.4362027092697
680.7859291836447 923.0629740467785 492.3689200105754
86.11315423783542 284.211506791488 969.2831657850957
934.4547865542337 535.1338264433168 758.1659720239102
866.7661542860956 916.4503543623516 74.36856893001611
1006.62887577574 100.5679310091779 477.1559511175474
874.4517362035361 250.7437964144122 750.9319703069436
632.8146291004513 554.6054386237053 213.6253895469269
936.6567992745748 139.9888199737708 138.5886749014806
568.1685960084153 132.7871688620401 586.2929879396189
679.5047042447874 628.0032502212566 965.2720960206591
861.1814912674243 368.6314057937969 281.9022424438841
279.4591507640051 592.8091791168323 555.8563668305756
455.7704078733896 114.064550004493 519.1490325535151
604.0056668279992 733.7535454303261 831.9236583513697
367.3602134272368 392.3234587167004 552.3015873849168
944.8312556486245 314.7915178891847 759.5959089073488
655.2675343113597 770.1370416032775 95.75099449777808
685.9794723908377 276.0486291621344 338.7426478163072
595.7460149396442 403.029185906141 588.6039229045928
979.3691956224875 281.4440568319908 350.6066127238459
915.46511094595 224.3254366891676 316.6708576044122
769.327518023731 750.6458691852151 342.3051983429843
657.8484556496949 163.7865463497452 445.9497030550822
921.3504142538815 57.60329450519389 113.3632921495223
317.1337580901351 676.4148399906508 374.7123113353653
361.6698921373929 942.2738150444458 137.3301773959167
798.6259498044509 182.6080955256473 558.7236667340077
577.1692344424308 2.567847198111099 882.3673306976024
729.5277065528498 503.7299059986465 707.071933273148
148.5330781873885 445.8531510503097 129.1823794540191
949.5262552430694 63.32746939076962 391.0631758091209
35.17188990323022 273.8541947704392 723.5207618697342
632.7081208874092 13.09403932254479 269.2525894481005
269.6204683941739 433.5677244719048 423.5722098491723
344.3283622596907 347.025423432296 699.2574264170678
419.6169015136568 744.7794710161876 332.2139546378125
612.62813245044 987.3059708350318 357.3636035963289
55.16734138118993 610.497656944322 723.5848899582236
791.656802039312 908.2654167127931 112.800903534357
123.6122734429922 176.5783087233303 644.9079199540636
338.3317336139186 810.2646803580434 321.076387516883
661.6162355477159 146.6523974000983 737.5620783148597
184.3546911390768 642.142433139728 646.977478085032
407.9453917123842 13.32177021186185 645.2443243038633
308.0187397679285 694.2952783039291 957.7716925155278
926.5100176736036 296.317318893078 469.5618313314986
754.6491921294232 784.7941315485783 823.3116886423334
415.0214914717331 427.3989901629282 761.3721295429557
447.7854530442932 492.2043935430724 503.6731546687083
121.3515886177207 617.5271588899305 754.1230373034417
790.0391452547564 558.3938148760147 568.0087038251914
23.41231441861799 95.56911672048425 515.7496168047761
515.746577019986 682.347779850004 337.9964282883248
583.2551971420172 477.2565975664488 374.8850023935962
310.3044740935887 385.9365262039423 868.452126302156
506.2382987829224 639.6934847546822 54.94863609058295
157.5785258672714 554.3962098108988 631.8579781016274
271.9983051353838 534.6263574026539 910.3896634627982
312.9758383304165 782.2738201539189 709.4070245560362
211.4794167562112 379.7968178862569 744.0209731563589
17.16736227419397 698.7354519826174 138.5710834470422
64.5773311143568 57.50477057759842 944.5971058196707
742.7342796705669 606.9596137051833 69.34985497594339
676.1514278311685 15.87324898919603 598.3392425251312
64.46844701956324 688.4933142080997 296.7313546481064
292.1697968374543 18.07248616814063 383.2713541542257
803.8517270511886 944.0470380778312 988.5503741181445
426.356297923299 52.26571761110078 176.595150797407
214.0569265347255 903.8238274274311 269.7035306656107
510.4211882030009 31.41581678694449 476.9965846135809
872.8294715714189 650.9820444777571 194.0699165892965
720.5279031505419 318.9385054810371 1004.096481089438
908.6167865346188 737.1729241269953 234.8173252600051
869.767525891453 429.7714748722696 986.1011275863684
304.6751779578995 702.3584041603629 780.2832089659978
978.2983015466057 8.674447974909459 59.42185467125141
325.2032784662921 920.8118921537813 1002.405313019247
21.40768966208696 258.273436748551 392.1792179797359
54.66166394838801 815.6625076325406 232.0256209973625
9.032203414715969 638.6020943180667 32.29985309942235
15.34827195215012 742.3464835697253 578.5097506983443
490.7804545234034 765.3770024755627 212.3099537690953
5.974648395145823 770.940652237844 507.5317893056788
34.30663044878877 149.9895875489671 196.5076431949107
951.0353184735218 935.8646141558133 940.6078630424647
356.455663737868 150.8919149676842 76.39282098573442
392.644003462274 1020.167791011597 491.4419067920807
664.1763197510071 336.6732527884773 46.1261838388463
600.9060035937945 162.4298590952156 665.0022067872961
370.2904789518334 412.3422491510665 345.1678410273448
347.3395144956789 468.5020214396905 464.3836709335697
536.6156087884605 912.9702709740884 111.647742149962
982.8108037427727 89.7743235906019 689.6653983506689
206.4993707785149 608.723411748991 814.5936056468181
709.5620744408616 258.2947893807309 52.48457788700027
947.6083376513986 576.5535444011254 446.8331581261934
994.073371940486 97.02419845954857 732.8196266724427
313.9999360131125 797.1350563297216 120.8322698774725
80.23121245453949 684.1103719987609 1002.671393493638
1009.404868368059 427.4317184757079 655.2519093065609
689.3032126973405 441.3114406170025 981.3496687663319
962.939772823096 931.4011904143888 904.0576507727195
265.2330218773897 737.4626443205125 132.3351701829387
362.935258383466 282.6271796157772 485.219971745181
616.927909229463 1006.942588978164 1019.902323351015
553.6498412063613 602.5527312686049 736.5397268611782
474.5390874944794 85.00285603628622 1002.052643034512
19.60197784208872 441.1666015736977 500.0340613142795
575.6841002052265 631.0193711490105 718.8843716489944
159.1800891553269 563.0531328925165 208.3125215925607
511.7474927915467 310.3399329270885 247.606452269919
110.3084292532338 952.1479751852549 698.2210168300575
552.7216420891635 650.9180780044056 718.1770560699426
395.1100713394174 468.5365307152347 313.374231812912
817.4234206339821 993.6275646447134 303.6806220016692
163.8667177120406 213.5924309306519 272.1124963209656
89.44918235213486 379.4635253694279 860.5706240349076
722.4731476525833 622.0307630302026 230.1372188361692
684.7229146982136 972.738566410505 249.0618008187021
183.5671487278668 58.25006091079187 826.4992884810933
498.9660246870807 223.9706345785485 674.5167641416243
450.557806339577 553.5223050369804 635.8774062488601
928.2213648375005 121.4861588843551 165.0617047977417
893.7809757804478 108.7879123459128 628.1223489562714
59.39818653182867 743.7672511816975 965.0102768535783
753.2098539552607 779.0491790366075 589.4583239954876
391.6945341340984 400.0730456108128 219.1639821593311
110.935214962433 744.7646586769722 85.77537151232472
328.4410193139917 854.1624137781815 1.03310191688654
192.1384760519944 179.8134159258823 572.1189131489225
157.4122370535028 88.71852008443584 19.7420808647543
861.3930911918382 282.5225685801005 730.818678891628
743.0109596161916 941.8274737507096 39.93615583920659
471.9036072220457 880.0022133063892 505.9777506292515
370.4922763794304 983.5133254360064 346.9743248000087
318.3550484024624 908.4234651615238 897.4363746331321
462.5269097355446 186.3693948840431 17.832795532298
382.0225243813019 879.8812663682606 293.9899205515372
164.4751588311493 764.4685091887256 843.5493216333422
462.5129240672458 895.8380833794726 898.2623546460512
131.1635077175328 706.2459319286158 369.9269184117115
631.1912320221676 228.9896621325262 837.6708090444523
523.3208851230363 591.4114990519912 489.5764879797105
493.8767100879818 1013.399227658885 396.7758467330601
406.5360998504853 264.173958563064 1000.597046847894
631.2137008559868 542.2577070202021 166.0705994673888
309.8552546900456 172.7287366414981 820.6006735728683
864.4965403039323 4.54447973292672 288.7505818318101
470.4939038279137 286.814484973188 214.2505550624587
29.29910525385928 9.057877065389949 716.0420189504657
860.9397969835524 860.9271425739579 662.9493288756676
907.0376713961168 965.456019593703 863.7195214499059
903.2386451885766 738.420260736927 603.8742780571941
560.5147136120984 152.0057327372161 699.8783486229387
962.0082498158251 518.4489089729688 789.0751334246108
941.3200109451774 308.8488807681685 123.4611676659649
760.9039275297154 14.31094412855616 590.3273575717737
208.6964643118673 83.9780553015011 94.79824054610849
492.9237592790012 444.4881110095319 487.6691773963543
114.2120866238007 473.2638226096221 979.0207367148357
183.1112462195645 1014.171100333892 531.3681425041666
216.6872184874977 33.75295806918329 90.10871616996819
970.8782328537931 965.7729314990398 266.1441958553399
655.8525482091918 197.5284477100653 915.5575802841046
975.6200348240179 981.9148356413046 70.42077124969801
368.7397101068753 424.5394141096905 562.7491776253554
360.7023679628256 209.1920017860742 267.2870371228567
136.5840421592772 738.6765136217772 804.5712177566403
872.9618645568954 1023.094190583048 348.9975283020446
358.4914836610613 605.2431290048507 99.14686891768922
971.9862436362436 401.728582848925 264.4125670226226
335.5745863209248 226.1787903186708 620.4635440690971
279.4458842240904 625.6958400015525 429.3470941878223
107.4838508015152 303.8901139998113 220.9972869119132
633.1988348185388 461.3160624751261 960.5211444986795
740.8277328493689 370.4209457644873 759.0269443697393
0.5048208966821222 404.614603850092 550.7609900758663
928.9853606064245 605.2406307570449 718.8109747183515
474.7545523555444 7.038074482061847 358.7569249775904
921.0309485803255 572.296154567319 756.864193874896
758.917928522027 301.6003969711894 795.5325365567717
590.4605314982307 109.759981973063 697.3129717482576
978.6845930389514 639.5399458794672 560.2099273572096
949.2650951335517 1003.938572552488 3.938398757837422
576.894112453326 344.0599615957995 640.9405285559586
171.5957489772269 466.2140748814334 923.8802738501363
365.6617555991019 131.8331218366371 193.5327839342999
294.5074677900546 161.0105832001269 317.4056147065617
872.7515680484577 927.4729292393209 931.5769771146676
426.3543610453245 530.1057341439935 290.563825630499
478.2956798176106 763.0320213448705 551.6549073626134
83.5404665174032 842.6834134209919 184.6874690617132
846.7187469122337 92.09127089596193 55.83573123363549
64.68797485891143 15.96952876485368 170.1365732072979
867.9141110872699 438.1495512618196 458.4090423482815
977.6049949661153 880.8598144482751 38.05808291363182
886.256248669332 697.3769826894054 151.8690482000268
646.5906456553849 295.9260696514189 120.0781166792597
752.415956152019 178.5398829059016 691.6725107866389
519.0525793454436 961.7630010512828 582.2169045496162
309.2133290480292 922.5688222478316 355.4964848247707
423.6566783749263 509.7453040544401 998.4923341146033
148.2017398996606 70.99021219014269 136.9507448755365
606.6421767724205 854.8347954358177 551.3548045583916
751.356110268893 683.3169934909997 140.7473969796293
21.02231811704023 739.5767213979345 761.7524507556237
644.5379359127177 890.6015303053064 1020.289933026349
16.6293765468718 170.5923086685236 208.1093972392387
794.3780948275642 916.2865510549027 222.0892329117741
100.0746678121155 1008.632353843409 452.8274435749681
212.7767163611005 1006.271032238511 33.31786031930555
653.5506597892376 85.38342982296369 359.3397124025344
256.6224945241595 592.3600566550252 534.0208899662917
430.4984004963971 919.0363240179913 266.5233859003087
566.7974279105791 29.19818311187128 764.2495025129508
386.800248198829 498.4857855298553 757.8721773825866
956.2406025992277 90.23600822417124 943.2657948484891
866.8915683147081 729.2554720551948 58.85542145357344
154.2170845687903 345.6532693347552 283.0862161886433
910.070074789127 436.5220970727042 919.5129527903548
285.1854210167737 321.6113090848142 677.3389993218077
281.7097270797171 429.6718585853524 438.0543714979535
209.4936590248448 649.3430239011062 188.323575370949
878.0832427383036 211.1503422450697 491.7731619877873
286.1647578116459 129.3078414097558 185.578123286174
208.0881847390114 765.0930690625462 610.5979899133962
83.06324425743962 215.8045560091688 110.4313497945296
739.7239579342443 327.7105371708787 812.4997254248741
881.2148273673498 209.1513472660527 348.3561011082017
975.265203309253 1003.65817935351 357.2185858248791
230.0665850825904 45.67761375961827 447.8975404638266
141.5968410104777 728.9918458397057 132.0025855973549
183.8647322340665 486.1669595518743 265.0308889474259
340.3719913694543 347.7084458139639 166.7394774799221
620.7294880005464 967.6601855361486 178.4304146138573
634.018025752839 275.8972774356926 17.66743431563741
852.9386310207246 288.5508564282326 622.1690897080742
574.1962690812103 835.5622137361325 436.2853733226903
668.428761117466 884.8883365179694 914.6881881440627
95.82533446917186 507.3328954260873 744.8795705417617
442.4743068217699 73.47641020233043 698.2892110374061
443.9634692786798 910.2499877420748 249.8976558629599
481.0092066488602 359.7178030820643 561.4716861662996
848.7742279101561 545.9528792476037 355.5054881057317
573.1141515600397 431.3485651869865 229.1235229341078
489.0929792633343 848.0728130631712 615.6705823696088
10.59857359659457 895.2951365970041 265.9738898426177
732.6616832326602 511.7242309298638 813.385803666145
562.8882383675067 194.8539939267433 318.4597466178892
748.3855212521997 6.012164706425028 48.79760235391215
523.5288195625964 840.4600839784135 763.4895472255707
559.6127373437431 374.3512723872311 541.3624234220724
247.3044314513448 403.6876536507496 676.7841940400538
908.2144184116465 374.7069844067319 578.3780771696594
465.050815854096 948.6279729219214 765.2570355409554
102.0429283763739 186.0768313831726 1004.283949715719
220.6659748016939 966.6496283011564 360.7381041695945
711.5101144351696 701.7001986845682 164.3359967327557
343.200449519695 960.1250518314911 725.0731137882511
713.5123308445172 178.9016138733339 1020.277874073543
631.3897955185511 429.8291438525318 1021.84881787014
306.4097255326391 715.8072410463542 450.6997682561228
4.67420264251125 306.6069953325467 579.5324260081671
75.08334896927094 714.5478397479744 977.433501550021
21.96988318642257 288.331034489511 868.6125434069806
102.6932852669662 38.28032365330618 512.3713590030956
137.3048127732308 921.3518294427702 493.606969299187
932.1823457105801 244.8868111120416 736.7040048090502
495.9664637342141 658.8170962954694 78.35135030037615
1009.576787722319 227.5692230720909 180.0767514213579
335.7335389237987 650.6380020314673 55.04983070067219
46.89633909020056 527.8456841499367 502.9638651210778
248.1811344890834 1020.438287552204 676.7799572872461
405.4303288272751 943.5802875270904 104.382876124011
728.2951960031147 536.1638612418502 113.810926985208
423.4292363633314 807.4592644217432 295.0794037467627
992.4228533673064 232.998598962157 885.2960936718111
189.9252352891197 189.0812548815543 536.4951946098867
240.9424848819462 502.0864354219081 572.8104252868268
274.1505907977517 214.0313678956676 906.7055609220382
814.7110381423953 299.7257374572986 789.4092281080068
207.2077253307814 726.2219766189182 434.4659467448872
270.8760130143727 985.7013243193843 740.615593133271
915.8159633904488 107.8973324588284 398.2455955725589
336.9154751852503 297.7293965774674 524.4208992135283
552.9137718575809 942.2248782697819 372.5125336275595
213.5368498377753 713.2258194800929 383.0851817615406
464.0842691219858 188.1980322829465 39.31217876700934
141.9760546762876 683.7439990728691 733.9588865100727
380.3771003400932 99.61922276280113 671.4298351339669
484.4743086137925 425.4731369907664 170.4082969180246
252.6194844602539 111.1221296562281 202.2260292574359
522.2349434015049 290.9808520001728 28.44401796984419
742.3471885593343 575.9963338877993 298.4102179902025
760.6977212494634 567.6346765046947 551.5339744979912
775.9081085808477 292.1298778635561 33.31182987976028
638.324318822248 969.5650700493276 359.925196582582
63.76653708326266 408.7220081827194 686.7170521943788
1003.875531679901 237.6052592786261 220.5937692882123
179.2024134689344 912.2299191430938 215.6925754384141
154.648157491541 607.5765215144111 491.2714894453522
913.0204360178809 597.1889683106817 807.169256750819
740.7940333397952 171.3314205944981 425.3665354704682
913.9541813328304 193.8158410652076 864.4924452159388
349.2664165433385 396.3444108392316 800.9991451282021
303.7683870229068 167.9034529402696 948.8389426624599
165.7320462039377 21.42990827000749 884.0671869866568
885.564509028166 905.8331067341644 303.8777458984258
769.2451065866433 898.7282656423286 871.2097467734681
1012.633837760815 138.3607111396272 435.8180248788642
394.8122751568109 6.453735672214793 498.7603190014449
65.31200365986403 860.8470232652652 852.1471540300249
133.1496454760003 527.8820419059825 895.3263814103849
991.2862270343351 594.3196924872027 235.6788849228413
126.01844878607 842.8318353934776 143.0881980284567
903.3917708641045 960.3876123955293 521.299090932472
434.6265267702043 641.5439476645756 123.9838455351874
15.29087542050984 462.1666160219593 536.8792881851076
812.6883967555763 786.2124909932667 772.8933994782744
820.2831136561371 730.4924333430439 154.5169406989316
139.4495186023319 220.7952148734997 851.6662004641737
620.933111088807 19.70982099755377 959.0872798187222
946.7614036288384 551.6598928261712 380.6296176519921
221.7880874960413 268.6086459070676 220.1120669018788
971.2207310319159 994.3947229861498 233.671407574558
241.1022992813081 564.5751671235831 81.71306169483789
678.5593065355934 733.6146565017654 296.1835559178597
626.2427618997436 564.7792326650422 697.5712961854249
558.1939025288342 544.5963584969041 147.6442852207759
627.4173658258658 236.3532544839751 623.3939005860018
841.3130032367092 932.1887169784678 362.2850713084592
420.7393135752818 229.9394462674678 224.1035589448732
933.9409487105469 768.3560566588612 822.1204235737989
596.7430484874535 745.5383806118185 1014.537217359758
817.1613856148264 261.7646158059561 301.0868585383823
384.8779443635254 524.1936255801313 124.5275575007359
904.5911477963139 172.8625005055982 970.3334222390167
24.14959821904863 595.2509926547212 927.5370218046032
852.4160454162339 395.7288218714825 877.5381228716378
68.61559715200842 657.8521336615883 666.8484912335442
231.2138844538243 183.9284309672997 122.7655753271928
330.7538173065037 661.1462275130982 504.3955086964041
969.2028493856373 212.5050945340507 1016.089146253743
1018.628737271894 384.8236802778599 718.5096552133758
895.3089487458755 69.88503789816541 130.2551033653028
920.3795906447447 584.1198564802486 316.4497628627515
316.5597955784988 471.3765303374622 835.2720832645246
731.8476883986505 917.3440970632138 838.5575760373175
110.461207485237 216.8161267924648 744.7039403239803
58.32991485401912 94.1591404179208 748.026907697531
283.9271698096024 370.160225149526 512.6798184147314
979.5419654116329 298.8638872877487 450.8489210682374
767.4755774309228 348.7272985062081 218.5908720472193
583.8409829588838 582.9203872520669 614.1238754882379
512.4070126086291 964.6272463759008 907.5901045709721
625.8006829484416 861.3127476983063 9.505127469342984
7.952248608751165 178.8090130827578 411.221150260592
864.4717021649542 570.9120507894786 591.901211638081
608.4010637870535 512.7819558141188 55.72812003495442
45.78792630976106 21.70857719417488 198.2533123086294
512.178502444011 297.7239716934894 344.0667071125411
261.2178373585593 435.8043280941296 754.8220301535063
773.1973059772833 982.3236671766037 829.9079838489714
607.7253707829769 150.903511345078 149.4154042319395
458.829815798153 492.6444142336254 596.3346972990943
366.2018354830217 693.3842039681052 100.7776712987348
75.59112130574538 106.0234876862557 641.7745725705521
413.0893889201555 132.2617297065682 457.5264702695366
704.608603894394 425.4656825920549 220.3964329320401
882.8654630931358 945.9748366215854 978.8045862015393
465.4932170082362 870.5411250817798 273.7744334064701
777.9609018511975 495.3382180796161 203.5285519046163
997.140249227601 444.0232781762999 86.51380124556458
125.8560550197205 573.8073118419918 265.3967250537532
547.939350366815 853.4441550910759 853.081997582156
110.1093028412941 67.39058683339208 270.9361068335569
415.6495654149234 855.8169492981926 793.4567746712409
951.1172205915861 382.3888168162694 798.4949707935183
186.3008203986696 168.95850436359 218.1280389574202
758.4556162366699 484.1421430405151 51.86751955018069
632.2748688061574 213.8766327345316 712.895216699849
960.1903989023526 176.1928214007823 272.779595453876
689.301326692128 116.103005105843 804.4718368662072
960.3890019582008 759.8904516410834 585.8445602618552
991.6912638628286 40.73670437977687 143.1778450277753
52.88252025323315 454.506765353958 65.1599528586725
847.1210641494529 995.8394046430157 509.5809396218064
649.2966549473986 588.1649754068357 740.6044002580579
687.2688323792848 198.4828125384432 809.4309196007348
62.91455144952776 349.4536519437027 193.5997990866478
37.94685084682889 60.06390006563531 292.1746623127294
739.5613354634843 70.69634673421983 216.5918689734269
831.7615330510739 40.48234861887015 163.3489758378556
603.2276546196402 775.5472250091738 874.572612962956
268.6358301737159 729.6174399974152 269.6436272967299
93.57628267715772 578.8033428694907 766.858948550267
838.4843521353461 188.6172998171583 121.4390658295668
617.7149701823076 824.7941621895816 50.56600248338434
10.19000870518976 679.2778838780199 137.4141526313427
91.02178281155231 641.2239132628756 959.1820284129254
292.8754455200203 412.3793055345768 35.17197764952191
461.958461447965 908.6582818969096 440.8439286458768
168.1908529026865 392.4987018514501 760.103938383887
732.6775818371863 971.4228127168109 971.1089019230942
13.96494423608072 545.062881376136 316.4455045004027
934.3257944980149 628.5857658750534 121.4253176106231
716.1725136869981 474.5787389315876 493.7386180434184
1006.855751248651 676.7953557644902 867.5578888642566
70.31137641383957 889.4850396686746 638.9313953249342
817.0312834444876 509.0778445928161 498.2059221638353
578.0909060524829 232.1157241619227 652.9273648617808
271.2667220725299 304.786549401696 220.6654623518052
580.1801570066327 405.6067895924355 817.7867183555355
616.7391921338 941.7687201154531 398.8152528433849
949.9755623298503 692.1207064120292 23.88508748076542
134.8028513926147 385.5381280680567 899.9847641608858
875.6603663255355 232.7949549976432 455.9513029759996
113.7126527389151 291.1141050778735 621.855412950543
648.1266677852068 850.9585798875697 151.2516114545049
413.4315973610499 97.50374908743963 1016.544119915023
876.716365491921 364.2073104303009 885.043947314806
1017.511210575912 764.5097573351234 791.9329178493292
655.5907722634447 786.4026204384885 118.3466096086935
510.5780743467079 980.1125460010004 840.4163226111731
995.2598632202976 421.1140021551086 630.7210796002111
486.4181982482669 464.1295656818413 921.3430661753816
56.05684756989392 141.3896457040553 781.7651647294695
244.0292097899716 506.4578999823069 763.5172775122078
879.2621974275152 264.6717145096174 187.8447971622697
164.6920147635726 355.8798595664196 788.8078493528693
202.5101411465735 347.4345826738023 114.4721606648358
796.2020314133011 747.9550050766991 867.237582730628
1000.783798992234 348.0633491459612 988.1099463306692
197.2447130743912 625.8369217884741 872.9759035733
571.3874585918776 94.42500429812166 704.8897151385725
140.6104818299471 600.3830864929463 576.4541145772778
458.4096205343404 453.0637690976868 208.7110428677219
786.3694409110585 962.1002216301262 393.60187556684
77.46779391838872 144.4983164737619 983.1190485456865
171.7631696158278 301.7941969445858 632.6651904477631
770.928774292903 745.9097083313105 491.2232997181205
239.8939004634497 269.5810560428761 384.076927252209
517.9448828346249 415.6574577124756 166.5824358441252
234.2812013909023 636.255782385846 458.5356186464557
941.649213248029 367.5214635644415 860.4874894088189
262.6272986711458 817.6891816933681 551.7710069262556
840.1190060662484 5.936354683371792 494.668399945486
679.6241472283992 122.3803640420945 887.5090334055202
487.0825459368544 366.5219908054282 1019.111891296534
589.8072471688125 875.9160492166905 380.3012037500741
326.154159753993 989.5939861669842 853.2597693235003
150.1215832832118 889.1010500277737 905.2891293978014
257.97752200187 117.6501984164325 972.560334505966
460.0493745768444 416.0055125418234 930.6501989021172
123.2906237007351 518.9515917671599 921.5216995952583
82.87297188561551 227.8580090191717 353.406171155914
501.1766842579438 508.2891024085796 67.56633397134537
485.3337783524925 216.7526942586455 360.1840699930438
288.7306710826298 443.8793950179569 166.4658080256023
953.6109284833634 396.0453514915017 485.1836986419062
669.2782823303196 825.7960482806662 429.8763951945363
285.0236262683453 998.669555308879 48.32409971118948
265.3271487974951 157.8426773457498 994.4087094053654
558.6519505507698 18.68454077983283 487.9556961767227
943.4861248150812 398.2460382618823 624.627398498701
1013.363771920045 137.2979295980231 970.2003390671648
572.0579269959734 165.9315761022237 130.3504471058288
930.3464141102969 19.40227232324576 21.85137724795554
146.1106776355356 876.4817322287695 523.4434395616702
284.2123394430039 828.5018898652193 53.89715706942393
341.5365702768856 415.2535724360068 470.4975033515255
487.2027408571859 468.9822299433436 597.4235001214898
923.8769963455081 692.2262864490385 548.3157391115765
899.232488924026 529.582088155479 959.8494034652965
192.1010965927744 819.6878281224541 786.7281195577563
398.0023432390736 774.0551572887316 149.8265737663101
77.98292045796886 330.6344698695391 74.25283042620315
211.1520568611072 967.235002543875 943.1801930112496
47.74877434566206 280.1480822105319 14.81853786071672
927.5258825172838 771.9658764314863 259.6855901424521
555.6643822971813 541.6403857232347 415.2991907241473
517.2721753652742 132.2317238977047 781.2801174054488


